<svg xmlns="http://www.w3.org/2000/svg" viewBox="0 0 640 1209.5">
    <defs>
        <style>.a{fill:#f5f5f5;}</style>
    </defs>
    <title>philosophy-summary-mobile</title>
    <rect class="a" width="640" height="318"/>
</svg>
