<svg xmlns="http://www.w3.org/2000/svg" viewBox="0 0 1640 1076.07">
    <defs>
        <style>.a,.b{fill:none;stroke-miterlimit:10;stroke-width:2px;}.a{stroke:#000;}.b{stroke:#fff;}</style>
    </defs>
    <title>slider-background</title>
    <path class="a"
          d="M1388.94,896.73l225.46,78.81-81.81-222.46A474.71,474.71,0,0,0,1608,495.32C1608,231.46,1394,18.53,1131.19,18.53S654.4,232.48,654.4,495.32s214,476.8,476.79,476.8a474.76,474.76,0,0,0,257.75-75.39"/>
    <path class="a"
          d="M1256.53,403.92a151.88,151.88,0,0,0-122.68-61.5c-84.45,0-153.14,68.69-153.14,153.14s68.69,153.13,153.14,153.13a153.38,153.38,0,0,0,113.66-50.52"/>
    <path class="a"
          d="M1161.05,755.25a264.36,264.36,0,0,1-27.23,1.4c-144,0-261.08-117.13-261.08-261.1s117.12-261.11,261.08-261.11,261.1,117.13,261.1,261.11a260.18,260.18,0,0,1-41.66,141.55"/>
    <path class="a" d="M1133.85,864.62c203.48,0,369-165.56,369-369.06a368.35,368.35,0,0,0-19.54-118.79"/>
    <path class="a" d="M1133.85,126.5c-203.5,0-369.06,165.56-369.06,369.06"/>
</svg>
